<svg width="24" height="24" viewBox="0 0 24 24" fill="none" xmlns="http://www.w3.org/2000/svg">
<g clip-path="url(#clip0_270_14198)">
<path fill-rule="evenodd" clip-rule="evenodd" d="M1.68707 1.68707C0 3.37413 0 6.0894 0 11.52V12.48C0 17.9106 0 20.6259 1.68707 22.313C3.37413 24 6.0894 24 11.52 24H12.48C17.9106 24 20.6259 24 22.313 22.313C24 20.6259 24 17.9106 24 12.48V11.52C24 6.0894 24 3.37413 22.313 1.68707C20.6259 0 17.9106 0 12.48 0H11.52C6.0894 0 3.37413 0 1.68707 1.68707ZM4.05006 7.30005C4.18006 13.54 7.30005 17.2901 12.7701 17.2901H13.0801V13.72C15.0901 13.92 16.61 15.3901 17.22 17.2901H20.06C19.28 14.4501 17.2299 12.8801 15.95 12.2801C17.2299 11.5401 19.0299 9.74005 19.4599 7.30005H16.8799C16.3199 9.28005 14.6601 11.08 13.0801 11.25V7.30005H10.5V14.22C8.9 13.8201 6.88005 11.88 6.79005 7.30005H4.05006Z" fill="white"/>
</g>
<defs>
<clipPath id="clip0_270_14198">
<rect width="24" height="24" fill="white"/>
</clipPath>
</defs>
</svg>
